; Engine configuration file.
; It's best edited using the editor UI and not directly,
; since the parameters that go here are not all obvious.
;
; Format:
;   [section] ; section goes between []
;   param=value ; assign values to parameters

config_version=4

_global_script_classes=[  ]
_global_script_class_icons={

}

[application]

config/name="Godot Telemetry Demo"
run/main_scene="res://main.tscn"
run/low_processor_mode=true
config/icon="res://icon.png"

[compression]

formats/zstd/compression_level=22
formats/zlib/compression_level=9
formats/gzip/compression_level=9

[display]

window/size/width=640
window/size/height=480
window/stretch/mode="2d"
window/stretch/aspect="keep"

[filesystem]

import/open_asset_import/use_fbx=false

[rendering]

quality/driver/driver_name="GLES2"
vram_compression/import_etc=true
vram_compression/import_etc2=false
environment/default_environment="res://default_env.tres"
